{
	"credit": "Made with Blockbench",
	"texture_size": [32, 32],
	"textures": {
		"1": "tardis:blocks/cube_glow",
		"2": "tardis:blocks/psychic_cube_glass",
		"3": "tardis:blocks/cube_glow_seal_smaller",
		"particle": "tardis:blocks/psychic_cube_glass"
	},
	"elements": [
		{
			"from": [6.35, 0.33, 6.35],
			"to": [9.65, 3.63, 9.65],
			"faces": {
				"north": {"uv": [0, 0, 5, 5], "texture": "#1"},
				"east": {"uv": [0, 5, 5, 10], "texture": "#1"},
				"south": {"uv": [5, 5, 10, 10], "texture": "#1"},
				"west": {"uv": [5, 0, 10, 5], "texture": "#1"},
				"up": {"uv": [5, 15, 0, 10], "texture": "#1"},
				"down": {"uv": [10, 10, 5, 15], "texture": "#1"}
			}
		},
		{
			"name": "seal",
			"from": [6.284, 0.264, 6.0035],
			"to": [9.716, 3.696, 6.02],
			"faces": {
				"north": {"uv": [0, 0, 16, 16], "texture": "#3"},
				"east": {"uv": [0, 0, 0.5, 0.5], "texture": "#3"},
				"south": {"uv": [0, 0, 16, 16], "texture": "#3"},
				"west": {"uv": [0, 0, 0.5, 0.5], "texture": "#3"},
				"up": {"uv": [0, 0, 0.5, 0.5], "texture": "#3"},
				"down": {"uv": [0, 0, 0.5, 0.5], "texture": "#3"}
			}
		},
		{
			"name": "box",
			"from": [6.02, 0, 6.02],
			"to": [9.98, 3.96, 9.98],
			"rotation": {"angle": 0, "axis": "y", "origin": [8, 5.28, 8]},
			"faces": {
				"north": {"uv": [0, 0, 3, 3], "texture": "#2"},
				"east": {"uv": [0, 3, 3, 6], "texture": "#2"},
				"south": {"uv": [3, 3, 6, 6], "texture": "#2"},
				"west": {"uv": [3, 0, 6, 3], "texture": "#2"},
				"up": {"uv": [3, 9, 0, 6], "texture": "#2"},
				"down": {"uv": [6, 6, 3, 9], "texture": "#2"}
			}
		}
	],
	"display": {
		"thirdperson_righthand": {
			"rotation": [0, -180, 0],
			"translation": [0, 4, 0.25],
			"scale": [0.6, 0.6, 0.6]
		},
		"thirdperson_lefthand": {
			"rotation": [0, -180, 0],
			"translation": [0, 4, 0.25],
			"scale": [0.6, 0.6, 0.6]
		},
		"firstperson_righthand": {
			"rotation": [-20, 135, 0],
			"translation": [0, 8.5, 0]
		},
		"firstperson_lefthand": {
			"rotation": [-20, 135, 0],
			"translation": [0, 8.5, 0]
		},
		"ground": {
			"translation": [0, 5, 0]
		},
		"gui": {
			"rotation": [17, 153, 0],
			"translation": [-0.25, 11.75, 0],
			"scale": [2, 2, 2]
		},
		"head": {
			"translation": [0, 20, 0],
			"scale": [1.6, 1.6, 1.6]
		},
		"fixed": {
			"translation": [0, 24, 0],
			"scale": [4, 4, 1]
		}
	},
	"groups": [
		{
			"name": "glow",
			"origin": [8.5, 8.5, 7.5],
			"children": [0]
		}, 1,
		{
			"name": "cube",
			"origin": [8, 8, 8],
			"children": [2]
		}
	]
}