{
	"type":"minecraft:crafting_shaped",
	"pattern":[
		"W  ",
		"WWW",
		"S S"
	],
	"key":{
		"S":{
			"item":"minecraft:stick"
		},
		"W":{
			"item":"minecraft:red_wool"
		}
	},
	"result":{
		"item":"tardis:comfy_chair"
	}
}