{
  "type": "minecraft:crafting_shaped",
  "pattern": [
    "by ",
    "   ",
    "   "
  ],
  "key": {
    "b": {
      "item": "tardis:quantiscope_iron"
    },
    "y":{
    	"item":"minecraft:yellow_dye"
    }
  },
  "result": {
    "item": "tardis:quantiscope_brass"
  }
}