{
	"credit": "Made with Blockbench",
	"texture_size": [32, 32],
	"textures": {
		"23": "tardis:item/sonics/mk3_emitter"
	},
	"elements": [
		{
			"name": "octagon",
			"from": [5.74648, 2.05346, -3.17303],
			"to": [6.04699, 2.77894, -0.19447],
			"rotation": {"angle": 45, "axis": "z", "origin": [8, 4.51946, 3.20232]},
			"faces": {
				"north": {"uv": [3, 7.5, 3.5, 8], "texture": "#23"},
				"east": {"uv": [0, 0, 1.5, 0.5], "texture": "#23"},
				"south": {"uv": [3.5, 7.5, 4, 8], "texture": "#23"},
				"west": {"uv": [0, 0.5, 1.5, 1], "texture": "#23"},
				"up": {"uv": [0.5, 2.5, 0, 1], "texture": "#23"},
				"down": {"uv": [1, 1, 0.5, 2.5], "texture": "#23"}
			}
		},
		{
			"name": "octagon",
			"from": [7.84975, 1.18226, -3.17303],
			"to": [8.15025, 1.90774, -0.19447],
			"rotation": {"angle": 0, "axis": "y", "origin": [8, 4.51946, 3.20232]},
			"faces": {
				"north": {"uv": [4.5, 7.5, 5, 8], "texture": "#23"},
				"east": {"uv": [1, 1, 2.5, 1.5], "texture": "#23"},
				"south": {"uv": [5, 7.5, 5.5, 8], "texture": "#23"},
				"west": {"uv": [1, 1.5, 2.5, 2], "texture": "#23"},
				"up": {"uv": [1.5, 3.5, 1, 2], "texture": "#23"},
				"down": {"uv": [2, 2, 1.5, 3.5], "texture": "#23"}
			}
		},
		{
			"name": "octagon",
			"from": [5.53399, 2.26595, -3.17303],
			"to": [6.25948, 2.56645, -0.19447],
			"rotation": {"angle": 45, "axis": "z", "origin": [8, 4.51946, 3.20232]},
			"faces": {
				"north": {"uv": [5.5, 7.5, 6, 8], "texture": "#23"},
				"east": {"uv": [1.5, 0, 3, 0.5], "texture": "#23"},
				"south": {"uv": [6, 7.5, 6.5, 8], "texture": "#23"},
				"west": {"uv": [1.5, 0.5, 3, 1], "texture": "#23"},
				"up": {"uv": [2.5, 3.5, 2, 2], "texture": "#23"},
				"down": {"uv": [0.5, 2.5, 0, 4], "texture": "#23"}
			}
		},
		{
			"name": "octagon",
			"from": [7.63726, 1.39475, -3.17303],
			"to": [8.36274, 1.69525, -0.19447],
			"rotation": {"angle": 0, "axis": "y", "origin": [8, 4.51946, 3.20232]},
			"faces": {
				"north": {"uv": [7, 7.5, 7.5, 8], "texture": "#23"},
				"east": {"uv": [2.5, 2.5, 4, 3], "texture": "#23"},
				"south": {"uv": [7.5, 7.5, 8, 8], "texture": "#23"},
				"west": {"uv": [2.5, 1, 4, 1.5], "texture": "#23"},
				"up": {"uv": [1, 4, 0.5, 2.5], "texture": "#23"},
				"down": {"uv": [3, 3, 2.5, 4.5], "texture": "#23"}
			}
		},
		{
			"name": "octagon",
			"from": [3.35212, 2.5937, -2.87155],
			"to": [3.97191, 4.09001, -2.55845],
			"rotation": {"angle": 45, "axis": "z", "origin": [8, 7.67983, 7.73609]},
			"faces": {
				"north": {"uv": [7.5, 1.5, 8, 2], "texture": "#23"},
				"east": {"uv": [7.5, 3, 8, 3.5], "texture": "#23"},
				"south": {"uv": [7.5, 3.5, 8, 4], "texture": "#23"},
				"west": {"uv": [7.5, 4, 8, 4.5], "texture": "#23"},
				"up": {"uv": [8, 5, 7.5, 4.5], "texture": "#23"},
				"down": {"uv": [8, 5, 7.5, 5.5], "texture": "#23"}
			}
		},
		{
			"name": "octagon",
			"from": [7.6901, 0.79685, -2.87155],
			"to": [8.3099, 2.29315, -2.55845],
			"rotation": {"angle": 0, "axis": "y", "origin": [8, 7.67983, 7.73609]},
			"faces": {
				"north": {"uv": [7.5, 6, 8, 6.5], "texture": "#23"},
				"east": {"uv": [7.5, 6.5, 8, 7], "texture": "#23"},
				"south": {"uv": [0, 8, 0.5, 8.5], "texture": "#23"},
				"west": {"uv": [0.5, 8, 1, 8.5], "texture": "#23"},
				"up": {"uv": [1.5, 8.5, 1, 8], "texture": "#23"},
				"down": {"uv": [2, 8, 1.5, 8.5], "texture": "#23"}
			}
		},
		{
			"name": "octagon",
			"from": [2.91386, 3.03195, -2.87155],
			"to": [4.41017, 3.65175, -2.55845],
			"rotation": {"angle": 45, "axis": "z", "origin": [8, 7.67983, 7.73609]},
			"faces": {
				"north": {"uv": [2, 8, 2.5, 8.5], "texture": "#23"},
				"east": {"uv": [2.5, 8, 3, 8.5], "texture": "#23"},
				"south": {"uv": [3, 8, 3.5, 8.5], "texture": "#23"},
				"west": {"uv": [3.5, 8, 4, 8.5], "texture": "#23"},
				"up": {"uv": [4.5, 8.5, 4, 8], "texture": "#23"},
				"down": {"uv": [5, 8, 4.5, 8.5], "texture": "#23"}
			}
		},
		{
			"name": "octagon",
			"from": [7.25185, 1.2351, -2.87155],
			"to": [8.74815, 1.8549, -2.55845],
			"rotation": {"angle": 0, "axis": "y", "origin": [8, 7.67983, 7.73609]},
			"faces": {
				"north": {"uv": [5, 8, 5.5, 8.5], "texture": "#23"},
				"east": {"uv": [5.5, 8, 6, 8.5], "texture": "#23"},
				"south": {"uv": [6, 8, 6.5, 8.5], "texture": "#23"},
				"west": {"uv": [6.5, 8, 7, 8.5], "texture": "#23"},
				"up": {"uv": [7.5, 8.5, 7, 8], "texture": "#23"},
				"down": {"uv": [8, 8, 7.5, 8.5], "texture": "#23"}
			}
		},
		{
			"name": "octagon",
			"from": [4.00283, 2.44688, -3.04432],
			"to": [4.53585, 3.7337, -2.63568],
			"rotation": {"angle": 45, "axis": "z", "origin": [8, 6.82096, 6.227]},
			"faces": {
				"north": {"uv": [8, 8, 8.5, 8.5], "texture": "#23"},
				"east": {"uv": [8, 0, 8.5, 0.5], "texture": "#23"},
				"south": {"uv": [8, 0.5, 8.5, 1], "texture": "#23"},
				"west": {"uv": [8, 1, 8.5, 1.5], "texture": "#23"},
				"up": {"uv": [8.5, 2, 8, 1.5], "texture": "#23"},
				"down": {"uv": [8.5, 2, 8, 2.5], "texture": "#23"}
			}
		},
		{
			"name": "octagon",
			"from": [7.73349, 0.90159, -3.04432],
			"to": [8.26651, 2.18841, -2.63568],
			"rotation": {"angle": 0, "axis": "y", "origin": [8, 6.82096, 6.227]},
			"faces": {
				"north": {"uv": [8, 2.5, 8.5, 3], "texture": "#23"},
				"east": {"uv": [8, 3, 8.5, 3.5], "texture": "#23"},
				"south": {"uv": [8, 3.5, 8.5, 4], "texture": "#23"},
				"west": {"uv": [8, 4, 8.5, 4.5], "texture": "#23"},
				"up": {"uv": [8.5, 5, 8, 4.5], "texture": "#23"},
				"down": {"uv": [8.5, 5, 8, 5.5], "texture": "#23"}
			}
		},
		{
			"name": "octagon",
			"from": [3.62592, 2.82378, -3.04432],
			"to": [4.91275, 3.3568, -2.63568],
			"rotation": {"angle": 45, "axis": "z", "origin": [8, 6.82096, 6.227]},
			"faces": {
				"north": {"uv": [8, 5.5, 8.5, 6], "texture": "#23"},
				"east": {"uv": [8, 6, 8.5, 6.5], "texture": "#23"},
				"south": {"uv": [8, 6.5, 8.5, 7], "texture": "#23"},
				"west": {"uv": [8, 7, 8.5, 7.5], "texture": "#23"},
				"up": {"uv": [8.5, 8, 8, 7.5], "texture": "#23"},
				"down": {"uv": [0.5, 8.5, 0, 9], "texture": "#23"}
			}
		},
		{
			"name": "octagon",
			"from": [7.35659, 1.27849, -3.04432],
			"to": [8.64341, 1.81151, -2.63568],
			"rotation": {"angle": 0, "axis": "y", "origin": [8, 6.82096, 6.227]},
			"faces": {
				"north": {"uv": [0.5, 8.5, 1, 9], "texture": "#23"},
				"east": {"uv": [1, 8.5, 1.5, 9], "texture": "#23"},
				"south": {"uv": [1.5, 8.5, 2, 9], "texture": "#23"},
				"west": {"uv": [2, 8.5, 2.5, 9], "texture": "#23"},
				"up": {"uv": [3, 9, 2.5, 8.5], "texture": "#23"},
				"down": {"uv": [3.5, 8.5, 3, 9], "texture": "#23"}
			}
		},
		{
			"name": "octagon",
			"from": [3.00001, 2.67314, -2.6834],
			"to": [3.66676, 4.28281, -2.0591],
			"rotation": {"angle": 45, "axis": "z", "origin": [8, 8.14459, 7.77907]},
			"faces": {
				"north": {"uv": [2.5, 1.5, 3, 2.5], "texture": "#23"},
				"east": {"uv": [3, 3, 3.5, 4], "texture": "#23"},
				"south": {"uv": [3, 0, 3.5, 1], "texture": "#23"},
				"west": {"uv": [3, 1.5, 3.5, 2.5], "texture": "#23"},
				"up": {"uv": [4, 9, 3.5, 8.5], "texture": "#23"},
				"down": {"uv": [4.5, 8.5, 4, 9], "texture": "#23"}
			}
		},
		{
			"name": "octagon",
			"from": [3.18751, 4.22031, -2.65215],
			"to": [3.41676, 4.37656, -0.8091],
			"rotation": {"angle": 45, "axis": "z", "origin": [8, 8.14459, 7.77907]},
			"faces": {
				"north": {"uv": [4.5, 8.5, 5, 9], "texture": "#23"},
				"east": {"uv": [1, 3.5, 2, 4], "texture": "#23"},
				"south": {"uv": [5, 8.5, 5.5, 9], "texture": "#23"},
				"west": {"uv": [3.5, 3.5, 4.5, 4], "texture": "#23"},
				"up": {"uv": [2.5, 4.5, 2, 3.5], "texture": "#23"},
				"down": {"uv": [4, 0, 3.5, 1], "texture": "#23"}
			}
		},
		{
			"name": "octagon",
			"from": [3.18751, 2.56406, -2.65215],
			"to": [3.41676, 2.81406, -0.8091],
			"rotation": {"angle": 45, "axis": "z", "origin": [8, 8.14459, 7.77907]},
			"faces": {
				"north": {"uv": [5.5, 8.5, 6, 9], "texture": "#23"},
				"east": {"uv": [3.5, 1.5, 4.5, 2], "texture": "#23"},
				"south": {"uv": [6, 8.5, 6.5, 9], "texture": "#23"},
				"west": {"uv": [3.5, 2, 4.5, 2.5], "texture": "#23"},
				"up": {"uv": [0.5, 5, 0, 4], "texture": "#23"},
				"down": {"uv": [1, 4, 0.5, 5], "texture": "#23"}
			}
		},
		{
			"name": "octagon",
			"from": [7.66663, 0.74017, -2.6834],
			"to": [8.33337, 2.34983, -2.0591],
			"rotation": {"angle": 0, "axis": "y", "origin": [8, 8.14459, 7.77907]},
			"faces": {
				"north": {"uv": [1, 4, 1.5, 5], "texture": "#23"},
				"east": {"uv": [1.5, 4, 2, 5], "texture": "#23"},
				"south": {"uv": [3, 4, 3.5, 5], "texture": "#23"},
				"west": {"uv": [3.5, 4, 4, 5], "texture": "#23"},
				"up": {"uv": [7, 9, 6.5, 8.5], "texture": "#23"},
				"down": {"uv": [7.5, 8.5, 7, 9], "texture": "#23"}
			}
		},
		{
			"name": "octagon",
			"from": [2.52855, 3.1446, -2.6834],
			"to": [4.13822, 3.81135, -2.0591],
			"rotation": {"angle": 45, "axis": "z", "origin": [8, 8.14459, 7.77907]},
			"faces": {
				"north": {"uv": [3.5, 3, 4.5, 3.5], "texture": "#23"},
				"east": {"uv": [7.5, 8.5, 8, 9], "texture": "#23"},
				"south": {"uv": [4, 4, 5, 4.5], "texture": "#23"},
				"west": {"uv": [8, 8.5, 8.5, 9], "texture": "#23"},
				"up": {"uv": [5, 0.5, 4, 0], "texture": "#23"},
				"down": {"uv": [5, 0.5, 4, 1], "texture": "#23"}
			}
		},
		{
			"name": "octagon",
			"from": [7.19517, 1.21163, -2.6834],
			"to": [8.80483, 1.87837, -2.0591],
			"rotation": {"angle": 0, "axis": "y", "origin": [8, 8.14459, 7.77907]},
			"faces": {
				"north": {"uv": [4, 1, 5, 1.5], "texture": "#23"},
				"east": {"uv": [8.5, 8.5, 9, 9], "texture": "#23"},
				"south": {"uv": [4, 2.5, 5, 3], "texture": "#23"},
				"west": {"uv": [8.5, 0, 9, 0.5], "texture": "#23"},
				"up": {"uv": [3, 5, 2, 4.5], "texture": "#23"},
				"down": {"uv": [5, 4.5, 4, 5], "texture": "#23"}
			}
		},
		{
			"name": "octagon",
			"from": [3.00001, 2.67314, -1.1834],
			"to": [3.66676, 4.28281, -0.5591],
			"rotation": {"angle": 45, "axis": "z", "origin": [8, 8.14459, 7.77907]},
			"faces": {
				"north": {"uv": [4.5, 1.5, 5, 2.5], "texture": "#23"},
				"east": {"uv": [4.5, 3, 5, 4], "texture": "#23"},
				"south": {"uv": [0, 5, 0.5, 6], "texture": "#23"},
				"west": {"uv": [0.5, 5, 1, 6], "texture": "#23"},
				"up": {"uv": [9, 1, 8.5, 0.5], "texture": "#23"},
				"down": {"uv": [9, 1, 8.5, 1.5], "texture": "#23"}
			}
		},
		{
			"name": "octagon",
			"from": [7.66663, 0.74017, -1.1834],
			"to": [8.33337, 2.34983, -0.5591],
			"rotation": {"angle": 0, "axis": "y", "origin": [8, 8.14459, 7.77907]},
			"faces": {
				"north": {"uv": [1, 5, 1.5, 6], "texture": "#23"},
				"east": {"uv": [1.5, 5, 2, 6], "texture": "#23"},
				"south": {"uv": [2, 5, 2.5, 6], "texture": "#23"},
				"west": {"uv": [2.5, 5, 3, 6], "texture": "#23"},
				"up": {"uv": [9, 2, 8.5, 1.5], "texture": "#23"},
				"down": {"uv": [9, 2, 8.5, 2.5], "texture": "#23"}
			}
		},
		{
			"name": "octagon",
			"from": [2.52855, 3.1446, -1.1834],
			"to": [4.13822, 3.81135, -0.5591],
			"rotation": {"angle": 45, "axis": "z", "origin": [8, 8.14459, 7.77907]},
			"faces": {
				"north": {"uv": [3, 5, 4, 5.5], "texture": "#23"},
				"east": {"uv": [8.5, 2.5, 9, 3], "texture": "#23"},
				"south": {"uv": [4, 5, 5, 5.5], "texture": "#23"},
				"west": {"uv": [8.5, 3, 9, 3.5], "texture": "#23"},
				"up": {"uv": [6, 5.5, 5, 5], "texture": "#23"},
				"down": {"uv": [6, 0, 5, 0.5], "texture": "#23"}
			}
		},
		{
			"name": "octagon",
			"from": [2.46605, 3.3321, -2.6209],
			"to": [2.60697, 3.62385, -0.8091],
			"rotation": {"angle": 45, "axis": "z", "origin": [8, 8.14459, 7.77907]},
			"faces": {
				"north": {"uv": [8.5, 3.5, 9, 4], "texture": "#23"},
				"east": {"uv": [5, 0.5, 6, 1], "texture": "#23"},
				"south": {"uv": [8.5, 4, 9, 4.5], "texture": "#23"},
				"west": {"uv": [5, 1, 6, 1.5], "texture": "#23"},
				"up": {"uv": [5.5, 2.5, 5, 1.5], "texture": "#23"},
				"down": {"uv": [5.5, 2.5, 5, 3.5], "texture": "#23"}
			}
		},
		{
			"name": "octagon",
			"from": [4.02855, 3.3321, -2.65215],
			"to": [4.23197, 3.62385, -0.8091],
			"rotation": {"angle": 45, "axis": "z", "origin": [8, 8.14459, 7.77907]},
			"faces": {
				"north": {"uv": [8.5, 4.5, 9, 5], "texture": "#23"},
				"east": {"uv": [5, 3.5, 6, 4], "texture": "#23"},
				"south": {"uv": [8.5, 5, 9, 5.5], "texture": "#23"},
				"west": {"uv": [5, 4, 6, 4.5], "texture": "#23"},
				"up": {"uv": [3.5, 6.5, 3, 5.5], "texture": "#23"},
				"down": {"uv": [4, 5.5, 3.5, 6.5], "texture": "#23"}
			}
		},
		{
			"name": "octagon",
			"from": [7.19517, 1.21163, -1.1834],
			"to": [8.80483, 1.87837, -0.5591],
			"rotation": {"angle": 0, "axis": "y", "origin": [8, 8.14459, 7.77907]},
			"faces": {
				"north": {"uv": [5, 4.5, 6, 5], "texture": "#23"},
				"east": {"uv": [8.5, 5.5, 9, 6], "texture": "#23"},
				"south": {"uv": [4, 5.5, 5, 6], "texture": "#23"},
				"west": {"uv": [8.5, 6, 9, 6.5], "texture": "#23"},
				"up": {"uv": [6, 6, 5, 5.5], "texture": "#23"},
				"down": {"uv": [6.5, 1.5, 5.5, 2], "texture": "#23"}
			}
		},
		{
			"name": "octagon",
			"from": [3.30001, 2.60545, -0.56498],
			"to": [3.92675, 4.11854, -0.3569],
			"rotation": {"angle": 45, "axis": "z", "origin": [8, 7.74862, 7.30036]},
			"faces": {
				"north": {"uv": [5.5, 2, 6, 3], "texture": "#23"},
				"east": {"uv": [0, 6, 0.5, 7], "texture": "#23"},
				"south": {"uv": [0.5, 6, 1, 7], "texture": "#23"},
				"west": {"uv": [1, 6, 1.5, 7], "texture": "#23"},
				"up": {"uv": [9, 7, 8.5, 6.5], "texture": "#23"},
				"down": {"uv": [9, 7, 8.5, 7.5], "texture": "#23"}
			}
		},
		{
			"name": "octagon",
			"from": [7.68663, 0.78846, -0.56498],
			"to": [8.31337, 2.30154, -0.07565],
			"rotation": {"angle": 0, "axis": "y", "origin": [8, 7.74862, 7.30036]},
			"faces": {
				"north": {"uv": [1.5, 6, 2, 7], "texture": "#23"},
				"east": {"uv": [2, 6, 2.5, 7], "texture": "#23"},
				"south": {"uv": [2.5, 6, 3, 7], "texture": "#23"},
				"west": {"uv": [4, 6, 4.5, 7], "texture": "#23"},
				"up": {"uv": [9, 8, 8.5, 7.5], "texture": "#23"},
				"down": {"uv": [9, 8, 8.5, 8.5], "texture": "#23"}
			}
		},
		{
			"name": "octagon",
			"from": [2.85684, 3.04863, -0.56498],
			"to": [4.36992, 3.67537, -0.32565],
			"rotation": {"angle": 45, "axis": "z", "origin": [8, 7.74862, 7.30036]},
			"faces": {
				"north": {"uv": [5.5, 3, 6.5, 3.5], "texture": "#23"},
				"east": {"uv": [0, 9, 0.5, 9.5], "texture": "#23"},
				"south": {"uv": [4.5, 6, 5.5, 6.5], "texture": "#23"},
				"west": {"uv": [0.5, 9, 1, 9.5], "texture": "#23"},
				"up": {"uv": [6.5, 6.5, 5.5, 6], "texture": "#23"},
				"down": {"uv": [7, 0, 6, 0.5], "texture": "#23"}
			}
		},
		{
			"name": "octagon",
			"from": [7.24346, 1.23163, -0.56498],
			"to": [8.75654, 1.85837, -0.07565],
			"rotation": {"angle": 0, "axis": "y", "origin": [8, 7.74862, 7.30036]},
			"faces": {
				"north": {"uv": [6, 0.5, 7, 1], "texture": "#23"},
				"east": {"uv": [1, 9, 1.5, 9.5], "texture": "#23"},
				"south": {"uv": [6, 1, 7, 1.5], "texture": "#23"},
				"west": {"uv": [1.5, 9, 2, 9.5], "texture": "#23"},
				"up": {"uv": [7, 2.5, 6, 2], "texture": "#23"},
				"down": {"uv": [7, 2.5, 6, 3], "texture": "#23"}
			}
		},
		{
			"name": "octagon",
			"from": [3.30001, 2.60545, 0.68502],
			"to": [3.92675, 4.11854, 1.0806],
			"rotation": {"angle": 45, "axis": "z", "origin": [8, 7.74862, 7.30036]},
			"faces": {
				"north": {"uv": [6, 3.5, 6.5, 4.5], "texture": "#23"},
				"east": {"uv": [6, 4.5, 6.5, 5.5], "texture": "#23"},
				"south": {"uv": [3, 6.5, 3.5, 7.5], "texture": "#23"},
				"west": {"uv": [3.5, 6.5, 4, 7.5], "texture": "#23"},
				"up": {"uv": [2.5, 9.5, 2, 9], "texture": "#23"},
				"down": {"uv": [3, 9, 2.5, 9.5], "texture": "#23"}
			}
		},
		{
			"name": "octagon",
			"from": [7.68663, 0.78846, 0.87252],
			"to": [8.31337, 2.30154, 1.0806],
			"rotation": {"angle": 0, "axis": "y", "origin": [8, 7.74862, 7.30036]},
			"faces": {
				"north": {"uv": [4.5, 6.5, 5, 7.5], "texture": "#23"},
				"east": {"uv": [5, 6.5, 5.5, 7.5], "texture": "#23"},
				"south": {"uv": [5.5, 6.5, 6, 7.5], "texture": "#23"},
				"west": {"uv": [6, 6.5, 6.5, 7.5], "texture": "#23"},
				"up": {"uv": [3.5, 9.5, 3, 9], "texture": "#23"},
				"down": {"uv": [4, 9, 3.5, 9.5], "texture": "#23"}
			}
		},
		{
			"name": "octagon",
			"from": [2.85684, 3.04863, 0.68502],
			"to": [4.36992, 3.67537, 1.0806],
			"rotation": {"angle": 45, "axis": "z", "origin": [8, 7.74862, 7.30036]},
			"faces": {
				"north": {"uv": [6, 5.5, 7, 6], "texture": "#23"},
				"east": {"uv": [4, 9, 4.5, 9.5], "texture": "#23"},
				"south": {"uv": [6.5, 6.5, 7.5, 7], "texture": "#23"},
				"west": {"uv": [4.5, 9, 5, 9.5], "texture": "#23"},
				"up": {"uv": [7.5, 2, 6.5, 1.5], "texture": "#23"},
				"down": {"uv": [7.5, 3, 6.5, 3.5], "texture": "#23"}
			}
		},
		{
			"name": "octagon",
			"from": [7.24346, 1.23163, 0.87252],
			"to": [8.75654, 1.85837, 1.0806],
			"rotation": {"angle": 0, "axis": "y", "origin": [8, 7.74862, 7.30036]},
			"faces": {
				"north": {"uv": [6.5, 3.5, 7.5, 4], "texture": "#23"},
				"east": {"uv": [5, 9, 5.5, 9.5], "texture": "#23"},
				"south": {"uv": [6.5, 4, 7.5, 4.5], "texture": "#23"},
				"west": {"uv": [5.5, 9, 6, 9.5], "texture": "#23"},
				"up": {"uv": [7.5, 5, 6.5, 4.5], "texture": "#23"},
				"down": {"uv": [7.5, 5, 6.5, 5.5], "texture": "#23"}
			}
		},
		{
			"name": "octagon",
			"from": [4.72927, 2.28297, -0.54938],
			"to": [5.16542, 3.33593, 0.83813],
			"rotation": {"angle": 45, "axis": "z", "origin": [8, 5.8621, 5.42874]},
			"faces": {
				"north": {"uv": [6, 9, 6.5, 9.5], "texture": "#23"},
				"east": {"uv": [6.5, 9, 7, 9.5], "texture": "#23"},
				"south": {"uv": [7, 9, 7.5, 9.5], "texture": "#23"},
				"west": {"uv": [7.5, 9, 8, 9.5], "texture": "#23"},
				"up": {"uv": [8.5, 9.5, 8, 9], "texture": "#23"},
				"down": {"uv": [9, 9, 8.5, 9.5], "texture": "#23"}
			}
		},
		{
			"name": "octagon",
			"from": [7.78193, 1.01852, -0.54938],
			"to": [8.21807, 2.07148, 0.83813],
			"rotation": {"angle": 0, "axis": "y", "origin": [8, 5.8621, 5.42874]},
			"faces": {
				"north": {"uv": [9, 9, 9.5, 9.5], "texture": "#23"},
				"east": {"uv": [9, 0, 9.5, 0.5], "texture": "#23"},
				"south": {"uv": [9, 0.5, 9.5, 1], "texture": "#23"},
				"west": {"uv": [9, 1, 9.5, 1.5], "texture": "#23"},
				"up": {"uv": [9.5, 2, 9, 1.5], "texture": "#23"},
				"down": {"uv": [9.5, 2, 9, 2.5], "texture": "#23"}
			}
		},
		{
			"name": "octagon",
			"from": [4.42087, 2.59138, -0.54938],
			"to": [5.47383, 3.02753, 0.83813],
			"rotation": {"angle": 45, "axis": "z", "origin": [8, 5.8621, 5.42874]},
			"faces": {
				"north": {"uv": [9, 2.5, 9.5, 3], "texture": "#23"},
				"east": {"uv": [9, 3, 9.5, 3.5], "texture": "#23"},
				"south": {"uv": [9, 3.5, 9.5, 4], "texture": "#23"},
				"west": {"uv": [9, 4, 9.5, 4.5], "texture": "#23"},
				"up": {"uv": [9.5, 5, 9, 4.5], "texture": "#23"},
				"down": {"uv": [9.5, 5, 9, 5.5], "texture": "#23"}
			}
		},
		{
			"name": "octagon",
			"from": [7.47352, 1.32693, -0.54938],
			"to": [8.52648, 1.76307, 0.83813],
			"rotation": {"angle": 0, "axis": "y", "origin": [8, 5.8621, 5.42874]},
			"faces": {
				"north": {"uv": [9, 5.5, 9.5, 6], "texture": "#23"},
				"east": {"uv": [9, 6, 9.5, 6.5], "texture": "#23"},
				"south": {"uv": [9, 6.5, 9.5, 7], "texture": "#23"},
				"west": {"uv": [9, 7, 9.5, 7.5], "texture": "#23"},
				"up": {"uv": [9.5, 8, 9, 7.5], "texture": "#23"},
				"down": {"uv": [9.5, 8, 9, 8.5], "texture": "#23"}
			}
		},
		{
			"name": "octagon",
			"from": [3.10956, 2.64843, 0.8254],
			"to": [3.76169, 4.22283, 1.0571],
			"rotation": {"angle": 45, "axis": "z", "origin": [8, 8, 8]},
			"faces": {
				"north": {"uv": [0, 7, 0.5, 8], "texture": "#23"},
				"east": {"uv": [0.5, 7, 1, 8], "texture": "#23"},
				"south": {"uv": [1, 7, 1.5, 8], "texture": "#23"},
				"west": {"uv": [1.5, 7, 2, 8], "texture": "#23"},
				"up": {"uv": [9.5, 9, 9, 8.5], "texture": "#23"},
				"down": {"uv": [0.5, 9.5, 0, 10], "texture": "#23"}
			}
		},
		{
			"name": "octagon",
			"from": [7.67393, 0.7578, 0.8254],
			"to": [8.32607, 2.3322, 1.0571],
			"faces": {
				"north": {"uv": [2, 7, 2.5, 8], "texture": "#23"},
				"east": {"uv": [2.5, 7, 3, 8], "texture": "#23"},
				"south": {"uv": [4, 7, 4.5, 8], "texture": "#23"},
				"west": {"uv": [6.5, 7, 7, 8], "texture": "#23"},
				"up": {"uv": [1, 10, 0.5, 9.5], "texture": "#23"},
				"down": {"uv": [1.5, 9.5, 1, 10], "texture": "#23"}
			}
		},
		{
			"name": "octagon",
			"from": [2.64843, 3.10956, 0.8254],
			"to": [4.22283, 3.76169, 1.0571],
			"rotation": {"angle": 45, "axis": "z", "origin": [8, 8, 8]},
			"faces": {
				"north": {"uv": [6.5, 6, 7.5, 6.5], "texture": "#23"},
				"east": {"uv": [1.5, 9.5, 2, 10], "texture": "#23"},
				"south": {"uv": [7, 7, 8, 7.5], "texture": "#23"},
				"west": {"uv": [2, 9.5, 2.5, 10], "texture": "#23"},
				"up": {"uv": [8, 0.5, 7, 0], "texture": "#23"},
				"down": {"uv": [8, 0.5, 7, 1], "texture": "#23"}
			}
		},
		{
			"name": "octagon",
			"from": [7.2128, 1.21893, 0.8254],
			"to": [8.7872, 1.87107, 1.0571],
			"faces": {
				"north": {"uv": [7, 1, 8, 1.5], "texture": "#23"},
				"east": {"uv": [2.5, 9.5, 3, 10], "texture": "#23"},
				"south": {"uv": [7, 2, 8, 2.5], "texture": "#23"},
				"west": {"uv": [3, 9.5, 3.5, 10], "texture": "#23"},
				"up": {"uv": [8, 3, 7, 2.5], "texture": "#23"},
				"down": {"uv": [8, 5.5, 7, 6], "texture": "#23"}
			}
		}
	],
	"display": {
		"thirdperson_righthand": {
			"rotation": [90, 0, 0],
			"translation": [0, 0, 3],
			"scale": [0.5, 0.5, 0.5]
		},
		"thirdperson_lefthand": {
			"rotation": [90, 0, 0],
			"translation": [0, 0, 3],
			"scale": [0.5, 0.5, 0.5]
		},
		"firstperson_righthand": {
			"rotation": [90, 0, 30]
		},
		"firstperson_lefthand": {
			"rotation": [90, 0, 30]
		},
		"fixed": {
			"rotation": [90, 45, 0],
			"translation": [1.25, -1.75, 6]
		},
		"ground": {
			"translation": [0, 4, 0]
		},
		"gui": {
			"rotation": [90, 0, 30],
			"translation": [-3, -8, 0]
		}
	}
}