{
  "type": "minecraft:block",
  "pools": [
    {
    "name":"tardis:clutter_paper",
      "rolls": 1,
      "entries": [
        {
          "type": "minecraft:item",
          "name": "tardis:clutter_paper"
        }
      ]
    }
  ]
}